simulation/qsim/audio1.msim.vcd
$comment
	File created using the following command:
		vcd file audio1.msim.vcd -direction
$end
$date
	Sun Aug 22 22:54:11 2021
$end
$version
	ModelSim Version 10.5b
$end
$timescale
	1ps
$end

$scope module audio1_vlg_vec_tst $end
$var reg 1 ! GPIO3 $end
$var reg 1 " SYS_CLK $end
$var wire 1 # GPIO0 $end
$var wire 1 $ GPIO1 $end
$var wire 1 % GPIO2 $end
$var wire 1 & GPIO4 $end
$var wire 1 ' GPIO5 $end
$var wire 1 ( GPIO6 $end
$var wire 1 ) GPIO7 $end
$var wire 1 * LEDR [9] $end
$var wire 1 + LEDR [8] $end
$var wire 1 , LEDR [7] $end
$var wire 1 - LEDR [6] $end
$var wire 1 . LEDR [5] $end
$var wire 1 / LEDR [4] $end
$var wire 1 0 LEDR [3] $end
$var wire 1 1 LEDR [2] $end
$var wire 1 2 LEDR [1] $end
$var wire 1 3 LEDR [0] $end

$scope module i1 $end
$var wire 1 4 gnd $end
$var wire 1 5 vcc $end
$var wire 1 6 unknown $end
$var tri1 1 7 devclrn $end
$var tri1 1 8 devpor $end
$var tri1 1 9 devoe $end
$var wire 1 : GPIO3~input_o $end
$var wire 1 ; ~QUARTUS_CREATED_GND~I_combout $end
$var wire 1 < ~QUARTUS_CREATED_UNVM~~busy $end
$var wire 1 = ~ALTERA_TMS~~ibuf_o $end
$var wire 1 > ~ALTERA_TMS~~padout $end
$var wire 1 ? ~ALTERA_TCK~~ibuf_o $end
$var wire 1 @ ~ALTERA_TCK~~padout $end
$var wire 1 A ~ALTERA_TDI~~ibuf_o $end
$var wire 1 B ~ALTERA_TDI~~padout $end
$var wire 1 C ~ALTERA_TDO~~padout $end
$var wire 1 D ~ALTERA_CONFIG_SEL~~ibuf_o $end
$var wire 1 E ~ALTERA_CONFIG_SEL~~padout $end
$var wire 1 F ~ALTERA_nCONFIG~~ibuf_o $end
$var wire 1 G ~ALTERA_nCONFIG~~padout $end
$var wire 1 H ~ALTERA_nSTATUS~~ibuf_o $end
$var wire 1 I ~ALTERA_nSTATUS~~padout $end
$var wire 1 J ~ALTERA_CONF_DONE~~ibuf_o $end
$var wire 1 K ~ALTERA_CONF_DONE~~padout $end
$var wire 1 L ~QUARTUS_CREATED_ADC1~~eoc $end
$var wire 1 M ~QUARTUS_CREATED_ADC2~~eoc $end
$var wire 1 N ~ALTERA_TDO~~obuf_o $end
$var wire 1 O SYS_CLK~input_o $end
$var wire 1 P PL0|altpll_component|auto_generated|wire_pll1_fbout $end
$var wire 1 Q PL0|altpll_component|auto_generated|wire_pll1_clk[0]~clkctrl_outclk $end
$var wire 1 R clk0|count[0]~32_combout $end
$var wire 1 S clk0|LessThan0~10_combout $end
$var wire 1 T clk0|count[0]~33 $end
$var wire 1 U clk0|count[1]~34_combout $end
$var wire 1 V clk0|count[1]~35 $end
$var wire 1 W clk0|count[2]~36_combout $end
$var wire 1 X clk0|count[2]~37 $end
$var wire 1 Y clk0|count[3]~38_combout $end
$var wire 1 Z clk0|count[3]~39 $end
$var wire 1 [ clk0|count[4]~40_combout $end
$var wire 1 \ clk0|count[4]~41 $end
$var wire 1 ] clk0|count[5]~42_combout $end
$var wire 1 ^ clk0|count[5]~43 $end
$var wire 1 _ clk0|count[6]~44_combout $end
$var wire 1 ` clk0|count[6]~45 $end
$var wire 1 a clk0|count[7]~46_combout $end
$var wire 1 b clk0|count[7]~47 $end
$var wire 1 c clk0|count[8]~48_combout $end
$var wire 1 d clk0|count[8]~49 $end
$var wire 1 e clk0|count[9]~50_combout $end
$var wire 1 f clk0|count[9]~51 $end
$var wire 1 g clk0|count[10]~52_combout $end
$var wire 1 h clk0|count[10]~53 $end
$var wire 1 i clk0|count[11]~54_combout $end
$var wire 1 j clk0|count[11]~55 $end
$var wire 1 k clk0|count[12]~56_combout $end
$var wire 1 l clk0|count[12]~57 $end
$var wire 1 m clk0|count[13]~58_combout $end
$var wire 1 n clk0|count[13]~59 $end
$var wire 1 o clk0|count[14]~60_combout $end
$var wire 1 p clk0|count[14]~61 $end
$var wire 1 q clk0|count[15]~62_combout $end
$var wire 1 r clk0|count[15]~63 $end
$var wire 1 s clk0|count[16]~64_combout $end
$var wire 1 t clk0|count[16]~65 $end
$var wire 1 u clk0|count[17]~66_combout $end
$var wire 1 v clk0|count[17]~67 $end
$var wire 1 w clk0|count[18]~68_combout $end
$var wire 1 x clk0|count[18]~69 $end
$var wire 1 y clk0|count[19]~70_combout $end
$var wire 1 z clk0|count[19]~71 $end
$var wire 1 { clk0|count[20]~72_combout $end
$var wire 1 | clk0|count[20]~73 $end
$var wire 1 } clk0|count[21]~74_combout $end
$var wire 1 ~ clk0|count[21]~75 $end
$var wire 1 !! clk0|count[22]~76_combout $end
$var wire 1 "! clk0|count[22]~77 $end
$var wire 1 #! clk0|count[23]~78_combout $end
$var wire 1 $! clk0|count[23]~79 $end
$var wire 1 %! clk0|count[24]~80_combout $end
$var wire 1 &! clk0|count[24]~81 $end
$var wire 1 '! clk0|count[25]~82_combout $end
$var wire 1 (! clk0|count[25]~83 $end
$var wire 1 )! clk0|count[26]~84_combout $end
$var wire 1 *! clk0|count[26]~85 $end
$var wire 1 +! clk0|count[27]~86_combout $end
$var wire 1 ,! clk0|count[27]~87 $end
$var wire 1 -! clk0|count[28]~88_combout $end
$var wire 1 .! clk0|count[28]~89 $end
$var wire 1 /! clk0|count[29]~90_combout $end
$var wire 1 0! clk0|LessThan0~7_combout $end
$var wire 1 1! clk0|count[29]~91 $end
$var wire 1 2! clk0|count[30]~92_combout $end
$var wire 1 3! clk0|count[30]~93 $end
$var wire 1 4! clk0|count[31]~94_combout $end
$var wire 1 5! clk0|LessThan0~8_combout $end
$var wire 1 6! clk0|LessThan0~6_combout $end
$var wire 1 7! clk0|LessThan0~2_combout $end
$var wire 1 8! clk0|LessThan0~1_combout $end
$var wire 1 9! clk0|LessThan0~0_combout $end
$var wire 1 :! clk0|LessThan0~3_combout $end
$var wire 1 ;! clk0|LessThan0~4_combout $end
$var wire 1 <! clk0|LessThan0~5_combout $end
$var wire 1 =! clk0|LessThan0~9_combout $end
$var wire 1 >! clk0|LessThan1~0_combout $end
$var wire 1 ?! clk0|div_clk~q $end
$var wire 1 @! clk0|div_clk~clkctrl_outclk $end
$var wire 1 A! clk1|count[0]~32_combout $end
$var wire 1 B! clk1|LessThan0~9_combout $end
$var wire 1 C! clk1|LessThan0~10_combout $end
$var wire 1 D! clk1|count[0]~33 $end
$var wire 1 E! clk1|count[1]~34_combout $end
$var wire 1 F! clk1|count[1]~35 $end
$var wire 1 G! clk1|count[2]~36_combout $end
$var wire 1 H! clk1|count[2]~37 $end
$var wire 1 I! clk1|count[3]~38_combout $end
$var wire 1 J! clk1|count[3]~39 $end
$var wire 1 K! clk1|count[4]~40_combout $end
$var wire 1 L! clk1|count[4]~41 $end
$var wire 1 M! clk1|count[5]~42_combout $end
$var wire 1 N! clk1|count[5]~43 $end
$var wire 1 O! clk1|count[6]~44_combout $end
$var wire 1 P! clk1|count[6]~45 $end
$var wire 1 Q! clk1|count[7]~46_combout $end
$var wire 1 R! clk1|count[7]~47 $end
$var wire 1 S! clk1|count[8]~48_combout $end
$var wire 1 T! clk1|count[8]~49 $end
$var wire 1 U! clk1|count[9]~50_combout $end
$var wire 1 V! clk1|count[9]~51 $end
$var wire 1 W! clk1|count[10]~52_combout $end
$var wire 1 X! clk1|count[10]~53 $end
$var wire 1 Y! clk1|count[11]~54_combout $end
$var wire 1 Z! clk1|count[11]~55 $end
$var wire 1 [! clk1|count[12]~56_combout $end
$var wire 1 \! clk1|count[12]~57 $end
$var wire 1 ]! clk1|count[13]~58_combout $end
$var wire 1 ^! clk1|count[13]~59 $end
$var wire 1 _! clk1|count[14]~60_combout $end
$var wire 1 `! clk1|count[14]~61 $end
$var wire 1 a! clk1|count[15]~62_combout $end
$var wire 1 b! clk1|count[15]~63 $end
$var wire 1 c! clk1|count[16]~64_combout $end
$var wire 1 d! clk1|count[16]~65 $end
$var wire 1 e! clk1|count[17]~66_combout $end
$var wire 1 f! clk1|count[17]~67 $end
$var wire 1 g! clk1|count[18]~68_combout $end
$var wire 1 h! clk1|count[18]~69 $end
$var wire 1 i! clk1|count[19]~70_combout $end
$var wire 1 j! clk1|count[19]~71 $end
$var wire 1 k! clk1|count[20]~72_combout $end
$var wire 1 l! clk1|count[20]~73 $end
$var wire 1 m! clk1|count[21]~74_combout $end
$var wire 1 n! clk1|count[21]~75 $end
$var wire 1 o! clk1|count[22]~76_combout $end
$var wire 1 p! clk1|count[22]~77 $end
$var wire 1 q! clk1|count[23]~78_combout $end
$var wire 1 r! clk1|count[23]~79 $end
$var wire 1 s! clk1|count[24]~80_combout $end
$var wire 1 t! clk1|count[24]~81 $end
$var wire 1 u! clk1|count[25]~82_combout $end
$var wire 1 v! clk1|LessThan0~5_combout $end
$var wire 1 w! clk1|count[25]~83 $end
$var wire 1 x! clk1|count[26]~84_combout $end
$var wire 1 y! clk1|count[26]~85 $end
$var wire 1 z! clk1|count[27]~86_combout $end
$var wire 1 {! clk1|count[27]~87 $end
$var wire 1 |! clk1|count[28]~88_combout $end
$var wire 1 }! clk1|count[28]~89 $end
$var wire 1 ~! clk1|count[29]~90_combout $end
$var wire 1 !" clk1|count[29]~91 $end
$var wire 1 "" clk1|count[30]~92_combout $end
$var wire 1 #" clk1|count[30]~93 $end
$var wire 1 $" clk1|count[31]~94_combout $end
$var wire 1 %" clk1|LessThan0~7_combout $end
$var wire 1 &" clk1|LessThan0~6_combout $end
$var wire 1 '" clk1|LessThan0~0_combout $end
$var wire 1 (" clk1|LessThan0~3_combout $end
$var wire 1 )" clk1|LessThan0~1_combout $end
$var wire 1 *" clk1|LessThan0~2_combout $end
$var wire 1 +" clk1|LessThan0~4_combout $end
$var wire 1 ," clk1|LessThan0~8_combout $end
$var wire 1 -" clk1|LessThan1~0_combout $end
$var wire 1 ." clk1|div_clk~q $end
$var wire 1 /" clk2|count[0]~32_combout $end
$var wire 1 0" clk2|LessThan0~1_combout $end
$var wire 1 1" clk2|LessThan0~6_combout $end
$var wire 1 2" clk2|LessThan0~7_combout $end
$var wire 1 3" clk2|LessThan0~0_combout $end
$var wire 1 4" clk2|LessThan0~2_combout $end
$var wire 1 5" clk2|LessThan0~3_combout $end
$var wire 1 6" clk2|LessThan0~4_combout $end
$var wire 1 7" clk2|LessThan0~5_combout $end
$var wire 1 8" clk2|LessThan0~8_combout $end
$var wire 1 9" clk2|count[0]~33 $end
$var wire 1 :" clk2|count[1]~34_combout $end
$var wire 1 ;" clk2|count[1]~35 $end
$var wire 1 <" clk2|count[2]~36_combout $end
$var wire 1 =" clk2|count[2]~37 $end
$var wire 1 >" clk2|count[3]~38_combout $end
$var wire 1 ?" clk2|count[3]~39 $end
$var wire 1 @" clk2|count[4]~40_combout $end
$var wire 1 A" clk2|count[4]~41 $end
$var wire 1 B" clk2|count[5]~42_combout $end
$var wire 1 C" clk2|count[5]~43 $end
$var wire 1 D" clk2|count[6]~44_combout $end
$var wire 1 E" clk2|count[6]~45 $end
$var wire 1 F" clk2|count[7]~46_combout $end
$var wire 1 G" clk2|count[7]~47 $end
$var wire 1 H" clk2|count[8]~48_combout $end
$var wire 1 I" clk2|count[8]~49 $end
$var wire 1 J" clk2|count[9]~50_combout $end
$var wire 1 K" clk2|count[9]~51 $end
$var wire 1 L" clk2|count[10]~52_combout $end
$var wire 1 M" clk2|count[10]~53 $end
$var wire 1 N" clk2|count[11]~54_combout $end
$var wire 1 O" clk2|count[11]~55 $end
$var wire 1 P" clk2|count[12]~56_combout $end
$var wire 1 Q" clk2|count[12]~57 $end
$var wire 1 R" clk2|count[13]~58_combout $end
$var wire 1 S" clk2|count[13]~59 $end
$var wire 1 T" clk2|count[14]~60_combout $end
$var wire 1 U" clk2|count[14]~61 $end
$var wire 1 V" clk2|count[15]~62_combout $end
$var wire 1 W" clk2|count[15]~63 $end
$var wire 1 X" clk2|count[16]~64_combout $end
$var wire 1 Y" clk2|count[16]~65 $end
$var wire 1 Z" clk2|count[17]~66_combout $end
$var wire 1 [" clk2|count[17]~67 $end
$var wire 1 \" clk2|count[18]~68_combout $end
$var wire 1 ]" clk2|count[18]~69 $end
$var wire 1 ^" clk2|count[19]~70_combout $end
$var wire 1 _" clk2|count[19]~71 $end
$var wire 1 `" clk2|count[20]~72_combout $end
$var wire 1 a" clk2|count[20]~73 $end
$var wire 1 b" clk2|count[21]~74_combout $end
$var wire 1 c" clk2|count[21]~75 $end
$var wire 1 d" clk2|count[22]~76_combout $end
$var wire 1 e" clk2|count[22]~77 $end
$var wire 1 f" clk2|count[23]~78_combout $end
$var wire 1 g" clk2|count[23]~79 $end
$var wire 1 h" clk2|count[24]~80_combout $end
$var wire 1 i" clk2|count[24]~81 $end
$var wire 1 j" clk2|count[25]~82_combout $end
$var wire 1 k" clk2|count[25]~83 $end
$var wire 1 l" clk2|count[26]~84_combout $end
$var wire 1 m" clk2|LessThan1~0_combout $end
$var wire 1 n" clk2|count[26]~85 $end
$var wire 1 o" clk2|count[27]~86_combout $end
$var wire 1 p" clk2|count[27]~87 $end
$var wire 1 q" clk2|count[28]~88_combout $end
$var wire 1 r" clk2|count[28]~89 $end
$var wire 1 s" clk2|count[29]~90_combout $end
$var wire 1 t" clk2|count[29]~91 $end
$var wire 1 u" clk2|count[30]~92_combout $end
$var wire 1 v" clk2|LessThan1~1_combout $end
$var wire 1 w" clk2|count[30]~93 $end
$var wire 1 x" clk2|count[31]~94_combout $end
$var wire 1 y" clk2|LessThan1~2_combout $end
$var wire 1 z" clk2|LessThan1~6_combout $end
$var wire 1 {" clk2|LessThan1~3_combout $end
$var wire 1 |" clk2|LessThan1~4_combout $end
$var wire 1 }" clk2|LessThan1~5_combout $end
$var wire 1 ~" clk2|LessThan1~7_combout $end
$var wire 1 !# clk2|div_clk~q $end
$var wire 1 "# PL0|altpll_component|auto_generated|wire_pll1_locked $end
$var wire 1 ## clk1|count [31] $end
$var wire 1 $# clk1|count [30] $end
$var wire 1 %# clk1|count [29] $end
$var wire 1 &# clk1|count [28] $end
$var wire 1 '# clk1|count [27] $end
$var wire 1 (# clk1|count [26] $end
$var wire 1 )# clk1|count [25] $end
$var wire 1 *# clk1|count [24] $end
$var wire 1 +# clk1|count [23] $end
$var wire 1 ,# clk1|count [22] $end
$var wire 1 -# clk1|count [21] $end
$var wire 1 .# clk1|count [20] $end
$var wire 1 /# clk1|count [19] $end
$var wire 1 0# clk1|count [18] $end
$var wire 1 1# clk1|count [17] $end
$var wire 1 2# clk1|count [16] $end
$var wire 1 3# clk1|count [15] $end
$var wire 1 4# clk1|count [14] $end
$var wire 1 5# clk1|count [13] $end
$var wire 1 6# clk1|count [12] $end
$var wire 1 7# clk1|count [11] $end
$var wire 1 8# clk1|count [10] $end
$var wire 1 9# clk1|count [9] $end
$var wire 1 :# clk1|count [8] $end
$var wire 1 ;# clk1|count [7] $end
$var wire 1 <# clk1|count [6] $end
$var wire 1 =# clk1|count [5] $end
$var wire 1 ># clk1|count [4] $end
$var wire 1 ?# clk1|count [3] $end
$var wire 1 @# clk1|count [2] $end
$var wire 1 A# clk1|count [1] $end
$var wire 1 B# clk1|count [0] $end
$var wire 1 C# PL0|altpll_component|auto_generated|wire_pll1_clk [4] $end
$var wire 1 D# PL0|altpll_component|auto_generated|wire_pll1_clk [3] $end
$var wire 1 E# PL0|altpll_component|auto_generated|wire_pll1_clk [2] $end
$var wire 1 F# PL0|altpll_component|auto_generated|wire_pll1_clk [1] $end
$var wire 1 G# PL0|altpll_component|auto_generated|wire_pll1_clk [0] $end
$var wire 1 H# clk2|count [31] $end
$var wire 1 I# clk2|count [30] $end
$var wire 1 J# clk2|count [29] $end
$var wire 1 K# clk2|count [28] $end
$var wire 1 L# clk2|count [27] $end
$var wire 1 M# clk2|count [26] $end
$var wire 1 N# clk2|count [25] $end
$var wire 1 O# clk2|count [24] $end
$var wire 1 P# clk2|count [23] $end
$var wire 1 Q# clk2|count [22] $end
$var wire 1 R# clk2|count [21] $end
$var wire 1 S# clk2|count [20] $end
$var wire 1 T# clk2|count [19] $end
$var wire 1 U# clk2|count [18] $end
$var wire 1 V# clk2|count [17] $end
$var wire 1 W# clk2|count [16] $end
$var wire 1 X# clk2|count [15] $end
$var wire 1 Y# clk2|count [14] $end
$var wire 1 Z# clk2|count [13] $end
$var wire 1 [# clk2|count [12] $end
$var wire 1 \# clk2|count [11] $end
$var wire 1 ]# clk2|count [10] $end
$var wire 1 ^# clk2|count [9] $end
$var wire 1 _# clk2|count [8] $end
$var wire 1 `# clk2|count [7] $end
$var wire 1 a# clk2|count [6] $end
$var wire 1 b# clk2|count [5] $end
$var wire 1 c# clk2|count [4] $end
$var wire 1 d# clk2|count [3] $end
$var wire 1 e# clk2|count [2] $end
$var wire 1 f# clk2|count [1] $end
$var wire 1 g# clk2|count [0] $end
$var wire 1 h# clk0|count [31] $end
$var wire 1 i# clk0|count [30] $end
$var wire 1 j# clk0|count [29] $end
$var wire 1 k# clk0|count [28] $end
$var wire 1 l# clk0|count [27] $end
$var wire 1 m# clk0|count [26] $end
$var wire 1 n# clk0|count [25] $end
$var wire 1 o# clk0|count [24] $end
$var wire 1 p# clk0|count [23] $end
$var wire 1 q# clk0|count [22] $end
$var wire 1 r# clk0|count [21] $end
$var wire 1 s# clk0|count [20] $end
$var wire 1 t# clk0|count [19] $end
$var wire 1 u# clk0|count [18] $end
$var wire 1 v# clk0|count [17] $end
$var wire 1 w# clk0|count [16] $end
$var wire 1 x# clk0|count [15] $end
$var wire 1 y# clk0|count [14] $end
$var wire 1 z# clk0|count [13] $end
$var wire 1 {# clk0|count [12] $end
$var wire 1 |# clk0|count [11] $end
$var wire 1 }# clk0|count [10] $end
$var wire 1 ~# clk0|count [9] $end
$var wire 1 !$ clk0|count [8] $end
$var wire 1 "$ clk0|count [7] $end
$var wire 1 #$ clk0|count [6] $end
$var wire 1 $$ clk0|count [5] $end
$var wire 1 %$ clk0|count [4] $end
$var wire 1 &$ clk0|count [3] $end
$var wire 1 '$ clk0|count [2] $end
$var wire 1 ($ clk0|count [1] $end
$var wire 1 )$ clk0|count [0] $end
$var wire 1 *$ PL0|altpll_component|auto_generated|pll1_CLK_bus [4] $end
$var wire 1 +$ PL0|altpll_component|auto_generated|pll1_CLK_bus [3] $end
$var wire 1 ,$ PL0|altpll_component|auto_generated|pll1_CLK_bus [2] $end
$var wire 1 -$ PL0|altpll_component|auto_generated|pll1_CLK_bus [1] $end
$var wire 1 .$ PL0|altpll_component|auto_generated|pll1_CLK_bus [0] $end
$upscope $end
$upscope $end
$enddefinitions $end
#0
$dumpvars
1!
0"
x#
0$
0%
0&
0'
0(
0)
03
02
01
00
0/
0.
0-
0,
0+
0*
04
15
x6
17
18
19
1:
0;
z<
z=
z>
z?
z@
zA
zB
zC
zD
zE
zF
zG
zH
zI
zJ
zK
zL
zM
zN
0O
xP
xQ
1R
0S
0T
0U
1V
0W
0X
0Y
1Z
0[
0\
0]
1^
0_
0`
0a
1b
0c
0d
0e
1f
0g
0h
0i
1j
0k
0l
0m
1n
0o
0p
0q
1r
0s
0t
0u
1v
0w
0x
0y
1z
0{
0|
0}
1~
0!!
0"!
0#!
1$!
0%!
0&!
0'!
1(!
0)!
0*!
0+!
1,!
0-!
0.!
0/!
10!
11!
02!
03!
04!
15!
16!
17!
18!
19!
1:!
1;!
1<!
1=!
1>!
0?!
0@!
1A!
1B!
0C!
0D!
0E!
1F!
0G!
0H!
0I!
1J!
0K!
0L!
0M!
1N!
0O!
0P!
0Q!
1R!
0S!
0T!
0U!
1V!
0W!
0X!
0Y!
1Z!
0[!
0\!
0]!
1^!
0_!
0`!
0a!
1b!
0c!
0d!
0e!
1f!
0g!
0h!
0i!
1j!
0k!
0l!
0m!
1n!
0o!
0p!
0q!
1r!
0s!
0t!
0u!
1v!
1w!
0x!
0y!
0z!
1{!
0|!
0}!
0~!
1!"
0""
0#"
0$"
1%"
1&"
1'"
1("
1)"
1*"
1+"
1,"
1-"
0."
1/"
10"
11"
12"
13"
14"
15"
16"
17"
08"
09"
0:"
1;"
0<"
0="
0>"
1?"
0@"
0A"
0B"
1C"
0D"
0E"
0F"
1G"
0H"
0I"
0J"
1K"
0L"
0M"
0N"
1O"
0P"
0Q"
0R"
1S"
0T"
0U"
0V"
1W"
0X"
0Y"
0Z"
1["
0\"
0]"
0^"
1_"
0`"
0a"
0b"
1c"
0d"
0e"
0f"
1g"
0h"
0i"
0j"
1k"
0l"
1m"
0n"
0o"
1p"
0q"
0r"
0s"
1t"
0u"
1v"
0w"
0x"
1y"
1z"
1{"
1|"
1}"
1~"
0!#
0"#
0B#
0A#
0@#
0?#
0>#
0=#
0<#
0;#
0:#
09#
08#
07#
06#
05#
04#
03#
02#
01#
00#
0/#
0.#
0-#
0,#
0+#
0*#
0)#
0(#
0'#
0&#
0%#
0$#
0##
xG#
xF#
xE#
xD#
xC#
0g#
0f#
0e#
0d#
0c#
0b#
0a#
0`#
0_#
0^#
0]#
0\#
0[#
0Z#
0Y#
0X#
0W#
0V#
0U#
0T#
0S#
0R#
0Q#
0P#
0O#
0N#
0M#
0L#
0K#
0J#
0I#
0H#
0)$
0($
0'$
0&$
0%$
0$$
0#$
0"$
0!$
0~#
0}#
0|#
0{#
0z#
0y#
0x#
0w#
0v#
0u#
0t#
0s#
0r#
0q#
0p#
0o#
0n#
0m#
0l#
0k#
0j#
0i#
0h#
x.$
x-$
x,$
x+$
x*$
$end
#886
1P
#10000
1"
1O
#20000
0"
0O
#30000
1"
1O
#40000
0"
0O
#44200
0!
0:
#50000
1"
1O
#60000
0"
0O
#70000
1"
1O
#70886
0P
#80000
0"
0O
#88400
1!
1:
#90000
1"
1O
#100000
0"
0O
#110000
1"
1O
#120000
0"
0O
#130000
1"
1O
#132600
0!
0:
#140000
0"
0O
#140886
1P
#150000
1"
1O
#160000
0"
0O
#170000
1"
1O
#180000
0"
0O
#190000
1"
1O
#200000
0"
0O
#210000
1"
1O
#210886
0P
#220000
0"
0O
#230000
1"
1O
#240000
0"
0O
#250000
1"
1O
#260000
0"
0O
#270000
1"
1O
#280000
0"
0O
#280886
1P
#290000
1"
1O
#300000
0"
0O
#309400
1!
1:
#310000
1"
1O
#320000
0"
0O
#330000
1"
1O
#340000
0"
0O
#350000
1"
1O
#350886
0P
#360000
0"
0O
#370000
1"
1O
#380000
0"
0O
#390000
1"
1O
#400000
0"
0O
#410000
1"
1O
#420000
0"
0O
#420886
1P
#430000
1"
1O
#440000
0"
0O
#450000
1"
1O
#460000
0"
0O
#470000
1"
1O
#480000
0"
0O
#486200
0!
0:
#490000
1"
1O
#495443
0P
#500000
0"
0O
#510000
1"
1O
#520000
0"
0O
#530000
1"
1O
#540000
0"
0O
#550000
1"
1O
#560000
0"
0O
#570000
1"
1O
1P
1"#
0*$
0+$
0,$
0-$
0.$
0G#
0F#
0E#
0D#
0C#
0Q
0#
12
#574600
1!
1:
#580000
0"
0O
#585949
1.$
1G#
1Q
1#
1g#
1)$
1!#
1?!
1@!
1%
13
19"
1T
0/"
0R
1:"
1U
1B#
1."
1$
1D!
0A!
1E!
#590000
1"
1O
#600000
0"
0O
#608101
0.$
0G#
0Q
0#
#610000
1"
1O
#618800
0!
0:
#620000
0"
0O
#630000
1"
1O
#630253
1.$
1G#
1Q
1#
1f#
0g#
1($
0)$
0;"
09"
0V
0T
0:"
1/"
0U
1R
1;"
1V
1<"
1:"
1W
1U
0<"
0W
#640000
0"
0O
0P
#650000
1"
1O
#652405
0.$
0G#
0Q
0#
#660000
0"
0O
#670000
1"
1O
#674556
1.$
1G#
1Q
1#
1g#
1)$
19"
1T
0/"
0R
0;"
0V
0:"
0U
1<"
1W
#680000
0"
0O
#690000
1"
1O
#696708
0.$
0G#
0Q
0#
#700000
0"
0O
#707200
1!
1:
#710000
1"
1O
1P
#718860
1.$
1G#
1Q
1#
1e#
0f#
0g#
1'$
0($
0)$
1="
1;"
09"
0>!
1X
1V
0T
0<"
1:"
1/"
0W
1U
1R
0="
0X
1>"
1<"
0:"
1Y
1W
0U
0>"
0Y
#720000
0"
0O
#730000
1"
1O
#740000
0"
0O
#741012
0.$
0G#
0Q
0#
#750000
1"
1O
#760000
0"
0O
#763164
1.$
1G#
1Q
1#
1g#
1)$
0?!
0@!
0%
19"
1T
0/"
0R
1:"
1U
#770000
1"
1O
#780000
0"
0O
0P
#785316
0.$
0G#
0Q
0#
#790000
1"
1O
#795600
0!
0:
#800000
0"
0O
#807468
1.$
1G#
1Q
1#
1f#
0g#
1($
0)$
0;"
09"
0V
0T
0:"
1/"
0U
1R
1="
1;"
1X
1V
0<"
1:"
0W
1U
0="
0X
1>"
1<"
1Y
1W
0>"
0Y
#810000
1"
1O
#820000
0"
0O
#829620
0.$
0G#
0Q
0#
#830000
1"
1O
#839800
1!
1:
#840000
0"
0O
#850000
1"
1O
1P
#851772
1.$
1G#
1Q
1#
1g#
1)$
19"
1S
1T
0/"
0R
0;"
0V
0:"
0U
1="
1X
0<"
0W
1>"
1Y
#860000
0"
0O
#870000
1"
1O
#873924
0.$
0G#
0Q
0#
#880000
0"
0O
#884000
0!
0:
#890000
1"
1O
#896075
1.$
1G#
1Q
1#
1d#
0e#
0f#
0g#
0'$
0($
0)$
0?"
0="
1;"
09"
1>!
0X
0S
1V
0T
0>"
1<"
1:"
1/"
1W
1U
1R
1?"
1@"
1>"
0<"
0:"
0Y
0W
0U
0@"
#900000
0"
0O
#910000
1"
1O
#918227
0.$
0G#
0Q
0#
#920000
0"
0O
0P
#930000
1"
1O
#940000
0"
0O
#940379
1.$
1G#
1Q
1#
1g#
1)$
1?!
1@!
1%
19"
1T
0/"
0R
1:"
1U
1A#
0B#
0F!
0D!
0E!
1A!
1F!
1G!
1E!
0G!
#950000
1"
1O
#960000
0"
0O
#962531
0.$
0G#
0Q
0#
#970000
1"
1O
#980000
0"
0O
#984683
1.$
1G#
1Q
1#
1f#
0g#
1($
0)$
0;"
09"
0V
0T
0:"
1/"
0U
1R
1;"
1V
1<"
1:"
1W
1U
0<"
0W
#990000
1"
1O
1P
#1000000
0"
0O
#1006835
0.$
0G#
0Q
0#
#1010000
1"
1O
#1020000
0"
0O
#1028987
1.$
1G#
1Q
1#
1g#
1)$
19"
1T
0/"
0R
0;"
0V
0:"
0U
1<"
1W
#1030000
1"
1O
#1040000
0"
0O
#1050000
1"
1O
#1051139
0.$
0G#
0Q
0#
#1060000
0"
0O
0P
#1070000
1"
1O
#1073291
1.$
1G#
1Q
1#
1e#
0f#
0g#
1'$
0($
0)$
1="
1;"
09"
0>!
1X
1V
0T
0<"
1:"
1/"
0W
1U
1R
0?"
0="
0X
0>"
1<"
0:"
1Y
1W
0U
1?"
1@"
1>"
0Y
0@"
#1080000
0"
0O
#1090000
1"
1O
#1095443
0.$
0G#
0Q
0#
#1100000
0"
0O
#1105000
1!
1:
#1110000
1"
1O
#1117594
1.$
1G#
1Q
1#
1g#
1)$
0?!
0@!
0%
19"
1T
0/"
0R
1:"
1U
#1120000
0"
0O
#1130000
1"
1O
1P
#1139746
0.$
0G#
0Q
0#
#1140000
0"
0O
#1149200
0!
0:
#1150000
1"
1O
#1160000
0"
0O
#1161898
1.$
1G#
1Q
1#
1f#
0g#
1($
0)$
0;"
09"
0V
0T
0:"
1/"
0U
1R
1="
1;"
1X
1V
0<"
1:"
0W
1U
0?"
0="
0X
0>"
1<"
1Y
1W
1?"
1@"
1>"
0Y
0@"
#1170000
1"
1O
#1180000
0"
0O
#1184050
0.$
0G#
0Q
0#
#1190000
1"
1O
#1200000
0"
0O
0P
#1206202
1.$
1G#
1Q
1#
1g#
1)$
19"
1S
1T
0/"
0R
0;"
0V
0:"
0U
1="
1X
0<"
0W
0?"
0>"
1Y
1@"
#1210000
1"
1O
#1220000
0"
0O
#1228354
0.$
0G#
0Q
0#
#1230000
1"
1O
#1240000
0"
0O
#1250000
1"
1O
#1250506
1.$
1G#
1Q
1#
1c#
0d#
0e#
0f#
0g#
0'$
0($
0)$
1A"
1?"
0="
1;"
09"
1>!
0X
0S
1V
0T
0@"
1>"
1<"
1:"
1/"
1W
1U
1R
0A"
1B"
1@"
0>"
0<"
0:"
0Y
0W
0U
0B"
#1260000
0"
0O
#1270000
1"
1O
1P
#1272658
0.$
0G#
0Q
0#
#1280000
0"
0O
#1290000
1"
1O
#1294810
1.$
1G#
1Q
1#
1g#
1)$
1?!
1@!
1%
19"
1T
0/"
0R
1:"
1U
1B#
1D!
0A!
0F!
0E!
1G!
#1300000
0"
0O
#1310000
1"
1O
#1316962
0.$
0G#
0Q
0#
#1320000
0"
0O
#1330000
1"
1O
#1339113
1.$
1G#
1Q
1#
1f#
0g#
1($
0)$
0;"
09"
0V
0T
0:"
1/"
0U
1R
1;"
1V
1<"
1:"
1W
1U
0<"
0W
#1340000
0"
0O
0P
#1350000
1"
1O
#1360000
0"
0O
#1361265
0.$
0G#
0Q
0#
#1370000
1"
1O
#1380000
0"
0O
#1383417
1.$
1G#
1Q
1#
1g#
1)$
19"
1T
0/"
0R
0;"
0V
0:"
0U
1<"
1W
#1390000
1"
1O
#1400000
0"
0O
#1405569
0.$
0G#
0Q
0#
#1410000
1"
1O
1P
#1420000
0"
0O
#1427721
1.$
1G#
1Q
1#
1e#
0f#
0g#
1'$
0($
0)$
1="
1;"
09"
0>!
1X
1V
0T
0<"
1:"
1/"
0W
1U
1R
0="
0X
1>"
1<"
0:"
1Y
1W
0U
0>"
0Y
#1430000
1"
1O
#1440000
0"
0O
#1449873
0.$
0G#
0Q
0#
#1450000
1"
1O
#1458600
1!
1:
#1460000
0"
0O
#1470000
1"
1O
